<?xml version="1.0" encoding="utf-8"?>
<!-- Generator: Adobe Illustrator 19.0.0, SVG Export Plug-In . SVG Version: 6.00 Build 0)  -->
<svg version="1.1" id="Layer_1" xmlns="http://www.w3.org/2000/svg" xmlns:xlink="http://www.w3.org/1999/xlink" x="0px" y="0px"
	 viewBox="0 0 2790 555" enable-background="new 0 0 2790 555" xml:space="preserve">
<g id="XMLID_36_">
	<g id="XMLID_74_">
		<path id="XMLID_96_" fill="#FFFFFF" d="M756.4,303.9c0,12.2,1.2,22,3.7,29.2c2.5,7.3,6.5,12.9,11.8,17.1
			c5.4,4.1,12.1,7.1,19.9,8.9c7.9,1.8,17.1,3.1,27.8,3.7c2.7,0,4.6,0.9,5.6,2.8c1.1,2,1.7,4,1.7,6.3c0,2.3-0.6,4.3-1.9,6
			c-1.2,1.8-3.3,2.6-5.9,2.6c-19.8,0-36.8-0.7-51-2.1c-14.1-1.4-27.9-2.1-41.1-2.1c-14.1,0-27.9,0.7-41.4,2.1
			c-13.5,1.3-26.8,2.1-39.8,2.1c-2.2,0-3.8-0.9-4.8-2.6c-1.1-1.7-1.7-3.6-1.9-5.8c-0.2-2.1,0.2-4.1,1.4-6c1.1-1.8,2.8-3,5.3-3.4
			c10.4-1,19-2.5,25.5-4.3c6.6-1.8,11.7-4.7,15.4-8.6c3.6-3.9,6.2-9.1,7.5-15.5c1.3-6.4,2.1-15,2.1-25.5V109.8
			c0-7.8-0.2-15.6-0.7-23.4c-0.4-7.8-1.6-15-3.7-21.6c-1.9-6.6-4.9-12.2-8.8-16.8c-3.8-4.7-9.1-7.6-15.7-9c-4-0.9-8.2-1.8-12.7-2.7
			c-4.5-0.8-8.7-1.4-12.7-1.8c-2.1,0-3.8-0.9-5-2.6c-1.2-1.7-1.8-3.7-1.8-5.8c0-2.2,0.5-4.1,1.8-5.9c1.1-1.7,2.8-2.6,5-2.6
			c12.4,0,23.6,0.5,33.6,1.6c9.9,1,21.5,1.5,34.9,1.5c22.1-0.4,40.4-0.9,54.8-1.8c14.5-0.9,28.4-1.3,41.7-1.3
			c14.7,0,29.2,1.5,43.3,4.4c14.2,2.9,26.7,8.1,37.6,15.3c10.9,7.3,19.6,16.9,26.2,28.7c6.6,11.8,9.8,26.2,9.8,43.3
			c0,19.9-4,36.4-12.1,49.6c-8.1,13.1-19.2,23.8-33.3,31.9c-14.2,8.1-30.7,14.1-49.9,17.7c-19.1,3.8-39.8,6-61.8,6.7
			c-3.8,0-6.5,0.5-8.1,1.7c-1.5,1.1-2.3,4.1-2.3,9V303.9z M756.4,188.2c0,2.8,0.8,4.5,2.3,5.3c1.7,0.8,4.7,1.2,9.2,1.2
			c18,0,33-1.3,45.1-4c12.2-2.7,21.9-7.2,29.4-13.4c7.3-6.2,12.6-14.4,15.7-24.4c3.1-10,4.7-22.5,4.7-37.4
			c0-27.9-5.4-47.7-16.1-59.2c-10.7-11.5-29.1-17.3-55.1-17.3c-14.3,0-23.8,1.8-28.4,5.2c-4.6,3.5-6.8,10.8-6.8,21.9V188.2z"/>
		<path id="XMLID_94_" fill="#FFFFFF" d="M1042.9,312.9c0,8.8,0.2,16.2,0.8,22.1c0.5,5.9,2.5,10.7,5.8,14.5
			c3.3,3.7,8.5,6.7,15.6,8.9c7.1,2.2,17.1,4,30,5.8c1.8,0.4,3.1,1.3,4.2,2.9c1,1.5,1.5,3.3,1.5,5.3c0,2-0.6,3.8-1.7,5.3
			c-1.2,1.5-2.5,2.3-3.9,2.3c-15.8,0-29.8-0.6-41.9-1.8c-12.1-1.2-23.8-1.8-34.9-1.8c-11.7,0-23.3,0.6-34.9,1.8
			c-11.6,1.2-23.3,1.8-35.2,1.8c-1.9,0-3.2-0.8-4.1-2.3c-0.9-1.5-1.3-3.3-1.3-5.3c0-2,0.4-3.8,1.3-5.3c0.9-1.6,2.5-2.5,4.7-2.9
			c10-1.4,17.9-3.1,23.5-5.3c5.7-2.2,9.9-5.1,12.7-8.6c2.8-3.5,4.5-8.1,5-13.5c0.6-5.5,0.8-12.4,0.8-20.8v-77.8
			c0-17.4-0.4-31.2-1.1-41.5c-0.8-10.3-2.5-18.2-5.3-23.7c-2.8-5.5-7.1-9.2-12.9-11.2c-5.9-2-14-3.3-24.4-4c-1.9,0-3.1-0.9-4-2.6
			c-0.9-1.7-1.4-3.5-1.4-5.3c0-1.9,0.6-3.6,1.6-5.3c1.1-1.8,2.5-2.6,4.4-2.6c8.8-0.7,17.6-1.6,26.5-2.8c8.9-1.1,17.1-2.2,24.7-3.2
			c7.5-1,13.8-2,19-2.9c5.2-0.9,8.4-1.3,9.8-1.3c6.6,0,10,3.2,10,9.6c0,2.5-0.3,7.5-0.8,15.1c-0.6,7.7-0.8,14.3-0.8,20
			c0,0.7,0.4,1.1,1.1,1.1c0.7,0,1.2-0.4,1.6-1.1c6.3-15.6,15-27.6,26.3-35.9c11.2-8.4,26.2-12.4,44.8-12.4
			c15.5,0,26.9,3.5,34.2,10.5c7.4,7,11.1,16.3,11.1,27.7c0,6.4-2.4,12.2-7.1,17.4c-4.8,5.1-11.6,7.6-20.4,7.6
			c-8.4,0-14.3-1.9-17.7-5.8c-3.3-4-5-8.1-5-12.7c0-10.7-5.3-16.1-15.9-16.1c-7,0-13.4,2.2-19.1,6.6c-5.7,4.4-10.6,9.7-14.7,15.8
			c-4.1,6.1-7.2,12.3-9.3,18.7c-2.2,6.4-3.2,11.4-3.2,14.8V312.9z"/>
		<path id="XMLID_91_" fill="#FFFFFF" d="M1260.6,312.9c0,8.8,0.3,16.3,0.7,22.4c0.4,6.1,1.8,11.1,3.9,15c2.2,3.9,5.5,6.9,10.1,9.1
			c4.6,2.2,11.1,3.8,19.5,4.8c2,0.4,3.5,1.3,4.5,2.7c0.9,1.5,1.5,3.2,1.5,5.1c0,2-0.5,3.8-1.5,5.5c-1,1.7-2.5,2.6-4.5,2.6
			c-3.2,0-7.1-0.2-11.6-0.5c-4.4-0.4-9.3-0.8-14.4-1.3c-5.1-0.5-10.4-1-16.1-1.3c-5.6-0.3-11.1-0.5-16.5-0.5
			c-11.9,0-23.5,0.6-34.6,1.8c-11.2,1.2-21.9,1.8-32.3,1.8c-1.8,0-3.2-0.8-4-2.3c-0.9-1.5-1.3-3.3-1.3-5.2c0-1.9,0.4-3.7,1.5-5.3
			c1-1.7,2.5-2.7,4.4-3.1c9.7-1,17.2-2.5,22.5-4.6c5.3-2.1,9.2-5,11.6-8.9c2.4-3.8,3.8-8.4,4.2-14c0.3-5.5,0.5-12.4,0.5-20.6v-85.6
			c0-15.6-0.4-27.9-1.1-36.9c-0.7-9.1-2.4-16-5.1-20.9c-2.7-4.9-6.6-8.2-11.8-10c-5.1-1.8-12-3.3-20.8-4.3c-1.6,0-2.8-0.8-3.6-2.4
			c-0.8-1.7-1.2-3.5-1.2-5.3c0-1.9,0.4-3.7,1.2-5.5c0.8-1.7,2-2.6,3.6-2.6c8.1-0.5,16.5-1.3,25.3-2.4c8.8-1.1,17-2.4,24.7-3.7
			c7.7-1.3,14.3-2.4,19.8-3.3c5.5-0.9,9-1.3,10.5-1.3c4.5,0,7.4,1.3,8.6,3.8c1.3,2.4,1.9,4.8,1.9,6.8V312.9z M1231.5,76.7
			c-9.1,0-17.1-2.8-24-8.4c-6.4-5.4-9.7-12.2-9.7-20.5c0-4.2,0.9-8.1,2.4-11.6c1.6-3.5,3.9-6.6,6.9-9.3c2.9-2.6,6.4-4.6,10.3-6.1
			c4-1.5,8.3-2.2,13-2.2c4.3,0,8.3,0.8,12,2.3c3.7,1.5,6.9,3.7,9.6,6.4c2.7,2.6,4.9,5.8,6.4,9.4c1.5,3.5,2.2,7.4,2.2,11.5
			c0,4-0.7,7.7-2.1,11c-1.5,3.5-3.5,6.4-6.1,9c-2.6,2.6-5.7,4.7-9.1,6.1C1239.8,76,1235.8,76.7,1231.5,76.7z"/>
		<path id="XMLID_89_" fill="#FFFFFF" d="M1418.9,313c0,17.9,3,30.5,8.8,37.7c6,7.3,15.8,12,29.6,14c2.4,0.4,4,1.3,4.9,3
			c0.9,1.5,1.3,3.3,1.3,5.3c0,2-0.5,3.8-1.6,5.3c-1.1,1.6-2.6,2.3-4.6,2.3c-1.8,0-5-0.2-9.5-0.5c-4.5-0.4-9.9-0.8-16-1.3
			c-6.2-0.5-12.4-1.1-19.1-1.7c-6.5-0.4-12.6-0.7-18.2-0.7c-11.9,0-23.2,0.6-33.8,1.8c-10.6,1.2-20.8,1.8-30.5,1.8
			c-1.8,0-3.1-0.8-4-2.3c-0.9-1.5-1.4-3.3-1.4-5.1c0-1.8,0.5-3.6,1.4-5.3c0.9-1.8,2.4-2.8,4.6-3.2c8.9-1.4,15.9-3,20.9-4.8
			c4.9-1.9,8.5-4.4,10.8-7.9c2.2-3.3,3.6-7.9,3.9-13.5c0.3-5.7,0.6-12.9,0.6-22v-67.1c0-17.7-0.1-32.4-0.3-43.9
			c-0.2-11.5-1.5-20.7-3.9-27.4c-2.4-6.9-6.2-11.6-11.3-14.5c-5.1-3-12.8-4.5-22.8-4.9c-2.2,0-3.7-0.9-4.6-2.6
			c-0.9-1.8-1.3-3.5-1.3-5.3c0-1.8,0.4-3.6,1.1-5.3c0.7-1.7,1.8-2.6,3.2-2.6c21-1.4,38.7-3.5,53.2-6.4c14.5-2.9,23.6-4.3,27.6-4.3
			c4.2,0,7.1,1,8.7,3.1c1.7,2.1,2.5,4.8,2.5,8.1c0,0.7-0.3,2.5-0.8,5.3c-0.6,2.9-1.2,6.2-1.9,9.9c-0.7,3.7-1.4,7.3-2,10.7
			c-0.5,3.4-0.7,5.9-0.7,7.6c0,0.7,0.2,1.1,0.7,1.1c0.6,0,1-0.4,1.4-1.1c2.5-4.3,6.4-9.2,11.6-14.7c5.2-5.4,11.4-10.7,18.7-15.7
			c7.2-5.1,15.7-9.3,25.3-12.8c9.6-3.5,19.9-5.2,30.8-5.2c26.2,0,46.6,7.3,61.4,22.1c14.7,14.8,22.1,38.6,22.1,71.6v91.2
			c0,9.5,0.3,17.3,1,23.4c0.7,6.1,2.3,11,4.6,14.7c2.3,3.7,5.7,6.6,10.2,8.6c4.4,2,10.6,3.5,18.3,4.5c1.8,0.4,3.2,1.3,4.1,2.9
			c0.9,1.5,1.4,3.3,1.4,5.3c0,2-0.5,3.8-1.4,5.3c-0.9,1.5-2.3,2.3-4.1,2.3c-4.8,0-13.1-0.6-24.6-1.8c-11.6-1.2-22.9-1.8-33.8-1.8
			c-11.8,0-22.7,0.6-32.5,1.8c-9.8,1.2-18.1,1.8-24.9,1.8c-2,0-3.4-0.8-4.3-2.3c-0.9-1.5-1.4-3.2-1.6-5.1c-0.2-1.8,0.1-3.5,0.8-5.3
			c0.7-1.8,2.2-2.8,4.3-3.1c7.4-1.4,13.1-3.1,17.1-5.3c4-2.2,7.1-5,9.1-8.6c2.1-3.5,3.3-8,3.6-13.5c0.4-5.4,0.6-12.3,0.6-20.6v-80.9
			c0-8.8-0.3-17.7-0.9-26.5c-0.6-8.9-2.3-16.8-5.5-23.9c-3.1-7.1-7.7-13-13.7-17.7c-6-4.6-14.6-7.1-25.6-7.1c-22,0-39.1,6.9-51,20.5
			c-11.9,13.7-17.9,33.4-17.9,59.1V313z"/>
		<path id="XMLID_87_" fill="#FFFFFF" d="M1710.2,246.8c0,15.1,2.4,28.8,7.1,41.4c4.7,12.4,11.3,23.2,19.6,32.2
			c8.3,8.9,18,15.9,29.1,20.8c11.2,4.9,23.1,7.4,35.9,7.4c10.3,0,20.8-1.1,31.7-3.4c10.9-2.3,21.6-6.9,32.2-14.1
			c3.1-1.8,6.2-1.1,9.2,2.4c3.1,3.5,3.5,6.6,1.4,9.3c-13.1,15.9-28.3,26.4-45.5,31.8c-17.3,5.4-35.4,8-54.5,8
			c-15.4,0-30.6-2.8-45.4-8.3c-14.8-5.5-28.1-13.7-39.6-24.6c-11.6-10.8-21-24.3-28.2-40.3c-7.1-16-10.8-34.6-10.8-55.6
			c0-17.7,3.1-34.2,9.1-49.5c6-15.3,14.8-28.5,26.4-39.8c11.7-11.3,25.9-20.2,42.9-26.7c17-6.6,36.6-9.7,58.6-9.7
			c10.6,0,20.9,1.1,31.1,3.6c10.1,2.5,19.2,6.1,27.1,10.9c7.9,4.9,14.2,10.8,19,17.8c4.8,7,7.1,15.1,7.1,24.1c0,6.4-2.2,12.4-6.7,18
			c-4.3,5.7-11.3,8.5-20.8,8.5c-7.8,0-14.1-1.9-19.1-5.8c-5-4-7.5-9.6-7.5-17.1c0-5,1.3-9.1,4-12.2c2.9-3.3,4.3-6.3,4.3-9.1
			c0-6.5-4.4-11.3-13.2-14.6c-9.1-3.5-19-5.3-29.3-5.3c-13.9,0-25.6,2.9-35.1,8.6c-9.5,5.7-17.2,13.3-23.2,22.7
			c-5.9,9.3-10.2,20-12.8,32C1711.5,222.3,1710.2,234.4,1710.2,246.8z"/>
		<path id="XMLID_84_" fill="#FFFFFF" d="M1993.7,312.9c0,8.8,0.2,16.3,0.7,22.4c0.5,6.1,1.7,11.1,3.9,15c2.2,3.9,5.5,6.9,10.1,9.1
			c4.6,2.2,11.1,3.8,19.6,4.8c2,0.4,3.5,1.3,4.5,2.7c0.9,1.5,1.4,3.2,1.4,5.1c0,2-0.5,3.8-1.4,5.5c-1,1.7-2.5,2.6-4.5,2.6
			c-3.3,0-7.1-0.2-11.6-0.5c-4.5-0.4-9.3-0.8-14.5-1.3c-5.1-0.5-10.5-1-16.1-1.3c-5.6-0.3-11.1-0.5-16.4-0.5
			c-12,0-23.5,0.6-34.7,1.8c-11.2,1.2-22,1.8-32.4,1.8c-1.8,0-3.1-0.8-4-2.3c-0.9-1.5-1.4-3.3-1.4-5.2c0-1.9,0.5-3.7,1.5-5.3
			c1-1.7,2.5-2.7,4.5-3.1c9.7-1,17.2-2.5,22.5-4.6c5.3-2.1,9.1-5,11.5-8.9c2.4-3.8,3.9-8.4,4.2-14c0.4-5.5,0.6-12.4,0.6-20.6v-85.6
			c0-15.6-0.4-27.9-1.1-36.9c-0.7-9.1-2.5-16-5.1-20.9c-2.7-4.9-6.6-8.2-11.8-10c-5.1-1.8-12-3.3-20.8-4.3c-1.6,0-2.9-0.8-3.6-2.4
			c-0.8-1.7-1.3-3.5-1.3-5.3c0-1.9,0.4-3.7,1.3-5.5c0.7-1.7,2-2.6,3.6-2.6c8.1-0.5,16.5-1.3,25.3-2.4c8.8-1.1,17-2.4,24.7-3.7
			c7.7-1.3,14.3-2.4,19.8-3.3c5.5-0.9,8.9-1.3,10.4-1.3c4.6,0,7.4,1.3,8.7,3.8c1.2,2.4,1.9,4.8,1.9,6.8V312.9z M1964.6,76.7
			c-9.1,0-17.2-2.8-23.9-8.4c-6.5-5.4-9.7-12.2-9.7-20.5c0-4.2,0.8-8.1,2.4-11.6c1.6-3.5,3.9-6.6,6.9-9.3c2.9-2.6,6.4-4.6,10.4-6.1
			c3.9-1.5,8.2-2.2,13-2.2c4.3,0,8.2,0.8,11.9,2.3c3.7,1.5,6.9,3.7,9.5,6.4c2.8,2.6,4.9,5.8,6.4,9.4c1.6,3.5,2.3,7.4,2.3,11.5
			c0,4-0.7,7.7-2.2,11c-1.5,3.5-3.4,6.4-6.1,9c-2.6,2.6-5.7,4.7-9.2,6.1C1972.8,76,1968.9,76.7,1964.6,76.7z"/>
		<path id="XMLID_81_" fill="#FFFFFF" d="M2099.9,248.8c0-17.4-0.3-31.9-1-43.4c-0.6-11.5-2.1-20.7-4.4-27.5
			c-2.3-6.8-6.2-11.7-11.6-14.7c-5.4-3.1-12.8-4.8-22.3-5.1c-1.8,0-3.1-0.9-4.1-2.6c-0.9-1.8-1.3-3.5-1.3-5.3c0-1.8,0.4-3.6,1.1-5.3
			c0.6-1.7,1.7-2.6,3.2-2.6c23.2-1.8,41.7-4,55.4-6.6c13.7-2.7,22.7-4,27.1-4c4.2,0,6.6,1,7.3,3.1c0.8,2.1,1.1,4,1.1,6
			c0,2.7-0.4,7-1.3,12.7c-0.9,5.7-1.4,11-1.4,15.9c0,0.8,0.3,1.2,1.1,1.3c0.7,0.2,1.3,0,1.6-0.8c7.1-11.2,17.4-21.1,31.1-29.4
			c13.7-8.4,30-12.4,48.9-12.4c16.5,0,31,3.1,43.4,9.7c12.5,6.5,22.9,15.4,31.3,26.6c8.2,11.2,14.6,24.1,18.8,38.6
			c4.2,14.6,6.3,29.7,6.3,45.3c0,19.3-2.8,37.1-8.4,53.4c-5.5,16.3-13.5,30.5-23.8,42.7c-10.4,12.1-22.7,21.5-36.9,28.2
			c-14.3,6.7-30.4,10.1-48.6,10.1c-11.3,0-21.3-0.8-30.1-2.3c-8.8-1.6-17.7-3.7-26.7-6.5c-1.8-0.8-2.9-0.8-3.2,0
			c-0.4,0.7-0.5,2.4-0.5,5.2v81.5c0,9,0.2,16.6,0.8,22.5c0.5,6,2.3,10.9,5.3,14.9c2.9,3.9,7.6,6.9,13.9,9.1
			c6.3,2.2,15.3,3.8,26.9,4.8c2.2,0.4,3.8,1.3,4.7,3c1,1.7,1.5,3.5,1.5,5.4c0,1.8-0.6,3.6-1.8,5.3c-1.1,1.8-2.7,2.5-4.5,2.5
			c-16.5,0-30.1-0.7-40.5-1.9c-10.6-1.3-21.1-2-31.8-2c-11.1,0-22.5,0.6-33.9,2c-11.5,1.2-23,1.9-34.7,1.9c-1.8,0-3.3-0.8-4.5-2.5
			c-1.1-1.6-1.7-3.5-1.7-5.3c0-1.9,0.5-3.7,1.7-5.4c1.2-1.6,2.9-2.6,5-3c10.2-1,18.3-2.6,24-4.8c5.8-2.2,9.9-5.1,12.6-8.9
			c2.5-3.7,4.1-8.3,4.4-13.7c0.4-5.5,0.6-12.3,0.6-20.5V248.8z M2151.9,319.4c0,2.7,1.2,6.5,3.9,11.2c2.6,4.8,6.4,9.5,11.2,14
			c4.9,4.4,11,8.4,18.2,11.8c7.2,3.4,15.3,5.1,24.5,5.1c11.5,0,21.1-2.9,29.1-8.7c7.9-5.7,14.3-13.6,19.2-23.5
			c4.9-10,8.6-21.5,10.8-34.6c2.2-13.1,3.3-27,3.3-41.5c0-30.2-4.3-52.8-12.8-67.9c-8.5-15.1-22.6-22.7-42.4-22.7
			c-9.5,0-18.3,1.5-26.3,4.4c-7.9,2.9-14.8,7.1-20.4,12.5c-5.6,5.4-10.1,11.6-13.4,18.8c-3.3,7.1-4.9,14.7-4.9,22.9V319.4z"/>
		<path id="XMLID_78_" fill="#FFFFFF" d="M2454.5,312.9c0,8.8,0.2,16.3,0.7,22.4c0.5,6.1,1.8,11.1,3.9,15c2.2,3.9,5.5,6.9,10.2,9.1
			c4.6,2.2,11,3.8,19.5,4.8c2,0.4,3.5,1.3,4.5,2.7c1,1.5,1.5,3.2,1.5,5.1c0,2-0.5,3.8-1.5,5.5c-1,1.7-2.4,2.6-4.5,2.6
			c-3.2,0-7.1-0.2-11.6-0.5c-4.5-0.4-9.3-0.8-14.4-1.3c-5.1-0.5-10.4-1-16.1-1.3c-5.6-0.3-11.1-0.5-16.5-0.5
			c-11.9,0-23.5,0.6-34.6,1.8c-11.2,1.2-21.9,1.8-32.3,1.8c-1.8,0-3.2-0.8-4.1-2.3c-0.9-1.5-1.4-3.3-1.4-5.2c0-1.9,0.5-3.7,1.6-5.3
			c1-1.7,2.4-2.7,4.4-3.1c9.7-1,17.2-2.5,22.5-4.6c5.3-2.1,9.1-5,11.6-8.9c2.4-3.8,3.8-8.4,4.2-14c0.4-5.5,0.5-12.4,0.5-20.6v-85.6
			c0-15.6-0.4-27.9-1.1-36.9c-0.7-9.1-2.4-16-5.1-20.9c-2.7-4.9-6.6-8.2-11.7-10c-5.1-1.8-12.1-3.3-20.9-4.3c-1.6,0-2.8-0.8-3.7-2.4
			c-0.7-1.7-1.2-3.5-1.2-5.3c0-1.9,0.4-3.7,1.2-5.5c0.9-1.7,2-2.6,3.7-2.6c8.1-0.5,16.5-1.3,25.4-2.4c8.8-1.1,17.1-2.4,24.7-3.7
			c7.7-1.3,14.3-2.4,19.8-3.3c5.5-0.9,9-1.3,10.5-1.3c4.5,0,7.4,1.3,8.6,3.8c1.3,2.4,1.9,4.8,1.9,6.8V312.9z M2425.5,76.7
			c-9.2,0-17.2-2.8-24-8.4c-6.4-5.4-9.7-12.2-9.7-20.5c0-4.2,0.9-8.1,2.4-11.6c1.7-3.5,3.9-6.6,6.9-9.3c3-2.6,6.4-4.6,10.4-6.1
			c4-1.5,8.3-2.2,12.9-2.2c4.3,0,8.3,0.8,11.9,2.3c3.8,1.5,7,3.7,9.6,6.4c2.7,2.6,4.8,5.8,6.4,9.4c1.5,3.5,2.2,7.4,2.2,11.5
			c0,4-0.7,7.7-2.1,11c-1.5,3.5-3.4,6.4-6,9c-2.6,2.6-5.7,4.7-9.2,6.1C2433.7,76,2429.8,76.7,2425.5,76.7z"/>
		<path id="XMLID_75_" fill="#FFFFFF" d="M2725.7,319.9c0,12.5,1.5,21.2,4.3,26.1c2.7,5,7.2,7.4,13.3,7.4c4.1,0,7.5-0.4,10.2-1.2
			c2.6-0.9,6.2-2.8,10.9-5.8c1.8-1.6,4.2-0.6,7.3,3.1c2.9,3.6,3.3,6.5,1.1,8.6c-6.3,7.3-13.7,13.2-22.4,17.7
			c-8.6,4.5-17.4,6.8-26.2,6.8c-11.3,0-20.8-2.1-28.4-6.4c-7.7-4.3-13.8-11.3-18.5-21.2c-0.7-1.7-1.8-1.8-3.5-0.5
			c-10.1,8-21.3,14.7-33.7,20.3c-12.2,5.2-27.7,7.8-46.4,7.8c-21.2,0-37.6-5.4-49.3-16.2c-11.5-10.7-17.3-26.1-17.3-46
			c0-26.1,12.3-46.3,36.8-60.2c24.5-13.8,60.4-20.8,107.7-20.8c0.5,0,0.9-0.2,1.2-0.5c0.3-0.3,0.5-1.4,0.6-3.2
			c0.1-1.8,0.2-4.7,0.3-8.4c0.1-3.7,0.1-8.9,0.1-15.7c0-8.9-0.7-17.2-2.1-25c-1.4-7.8-4.1-14.6-8.1-20.5
			c-3.9-5.9-9.4-10.6-16.2-13.9c-6.8-3.4-15.6-5.1-26.4-5.1c-10.8,0-20.2,2.6-28.3,7.8c-8.1,5.2-12.1,11.9-12.1,20.1
			c0,3.6,1.2,7.5,3.7,11.4c2.7,3.6,4,7.5,4,11.5c0,4.9-2.6,9.6-7.7,14.3c-5.3,4.7-11.5,7.1-18.6,7.1c-10.1,0-17.2-2.6-21.5-7.8
			c-4.2-5.3-6.3-11.6-6.3-19.1c0-9,2.6-17.4,7.8-25.2c5.2-7.9,12.3-14.6,21-20.5c8.8-5.8,19.1-10.3,30.9-13.7
			c11.8-3.2,24.2-4.9,37.1-4.9c29.4,0,52.6,6.5,69.5,19.7c16.9,13.1,25.3,34.9,25.3,65.4V319.9z M2673.7,265.7c0-4-0.1-6.4-0.6-7.2
			c-0.3-0.9-1.3-1.3-2.6-1.3c-30.2,2.4-52.5,8.7-67.1,18.9c-14.6,10.1-21.8,22.9-21.8,38.5c0,5.3,0.7,10.4,2,15
			c1.4,4.7,3.5,8.7,6.4,12.1c2.8,3.4,6.6,6.1,11.2,7.9c4.6,1.9,10.1,2.9,16.6,2.9c8.6,0,17.5-1.6,26.7-4.8c9.1-3.2,17.5-7.9,25-13.9
			c2.9-2.8,4.3-5.7,4.3-8.6V265.7z"/>
	</g>
	<g id="XMLID_70_">
		<path id="XMLID_71_" fill="#FFFFFF" d="M286.7,538.7C137.5,538.7,16,421.3,16,277.2C16,133,137.5,15.7,286.7,15.7
			C436,15.7,557.4,133,557.4,277.2C557.4,421.3,436,538.7,286.7,538.7z M286.7,36.4c-137.4,0-249.3,108-249.3,240.8
			c0,132.8,111.8,240.8,249.3,240.8c137.5,0,249.3-108,249.3-240.8C536,144.4,424.2,36.4,286.7,36.4z"/>
	</g>
	<g id="XMLID_65_">
		<g id="XMLID_68_">
			<path id="XMLID_2_" fill="#FFFFFF" d="M372.1,87.6c-13.9,53.1-45.8,221,66.5,341.6c40-37.9,64.8-90.8,64.8-149.2
				C503.4,193.6,449.3,119.6,372.1,87.6z"/>
		</g>
		<g id="XMLID_66_">
			<path id="XMLID_1_" fill="#FFFFFF" d="M316.7,72.9c-9.8-1.3-19.8-2.2-30-2.2c-21.5,0-42.3,3.1-62,8.8
				c62.7,24.8,65.2,94.1,65.2,94.1C291.6,306,172.2,272,172.2,272l11.2,23.3l-55.6-30.5l53.7-31.4l-1.8,17.9
				c74.1-17.9,63-79.7,63-79.7c-1.2-12.8-4.2-22.9-8-31c-28-42.3-79.4-18.8-86.3-15.3c-78.2,48.7-68.5,162.7-68.5,162.7
				c20,192.6,218.3,196.4,255.9,195.4c2.7-0.6,5.4-1.2,8.1-1.9c-43.7-27.1-109.1-83-146.8-187.9c0,0,37.1,6.6,66.7-20.3
				c0,0,0.2,119.1,118.4,194.1c7.2-3.5,14.2-7.2,20.9-11.3C340.9,403.8,270.8,293.5,316.7,72.9z"/>
		</g>
	</g>
	<g id="XMLID_37_">
		<path id="XMLID_63_" fill="#FFFFFF" d="M1243.5,514.5l-0.4,12h-47.3c0.4-9.9,0.7-22.4,0.7-37.3c0-13.8-0.2-25.2-0.7-34.1h16
			c-0.5,8.3-0.7,19.7-0.7,34.1c0,11-0.2,19.7-0.7,26.2C1220.8,515.3,1231.8,515,1243.5,514.5z"/>
		<path id="XMLID_61_" fill="#FFFFFF" d="M1306.9,514.4l-0.4,12.1h-48.3c0.5-11.1,0.7-23.5,0.7-37.3c0-13.4-0.2-24.8-0.7-34.1h46.1
			l-0.6,12c-11.4-0.5-21.7-0.9-30.9-0.9c0.4,5.1,0.6,11.1,0.6,18c7.9,0,16.4-0.2,25.4-0.6V495c-8.9-0.4-17.4-0.5-25.4-0.5
			c0,7.5,0.2,14.4,0.4,20.8C1284.1,515.3,1295.2,515,1306.9,514.4z"/>
		<path id="XMLID_58_" fill="#FFFFFF" d="M1389.8,526.5h-18.2c0-2.4-1.7-9.3-5.2-20.5h-26.3c-3.5,11.1-5.3,17.9-5.3,20.5h-17.1
			c0-1.4,4.4-13.1,13.3-35.1c8.8-22,13.2-34.1,13.2-36.3h21.5c0,2.1,4,14,12,35.8C1385.8,512.6,1389.8,524.5,1389.8,526.5z
			 M1363.5,495.5c-6.4-18.9-9.7-29.1-9.7-30.6h-0.9c0,1.4-3.3,11.6-10.1,30.6H1363.5z"/>
		<path id="XMLID_55_" fill="#FFFFFF" d="M1464.3,526.5h-16.8c-4.4-12.9-7.8-20.9-10.2-24c-2.4-3-6.2-4.5-11.3-4.5
			c-2.2,0-4.3,0-6.3,0c0,9.4,0.1,18.9,0.5,28.5h-15.8c0.5-11.1,0.7-23.5,0.7-37.3c0-13.4-0.2-24.8-0.7-34.1h9.8c1.2,0,3.5,0,7.1-0.2
			c3.6,0,7-0.1,10.1-0.1c17.4,0,26.1,5.7,26.1,17.3c0,9.1-5,15.5-14.9,19v0.9c3.9,1,7.2,3.9,10.1,8.6
			C1455.6,505.2,1459.5,513.8,1464.3,526.5z M1443.1,476c0-7.3-4.8-10.9-14.6-10.9c-3.6,0-6.7,0.3-9.5,0.8
			c0.4,5.7,0.7,13.1,0.7,22.1c2.1,0.1,3.8,0.1,5.3,0.1C1437,488.1,1443.1,484,1443.1,476z"/>
		<path id="XMLID_53_" fill="#FFFFFF" d="M1540.6,526.5h-14c0-1.5-5.2-9.4-15.7-23.8c-10.9-15.1-17.1-25.5-18.7-31h-0.9
			c1,8,1.4,15.3,1.4,21.7c0,9.1,0.3,20.1,0.9,33.1h-14c0.6-11.4,0.8-23.8,0.8-37.3c0-13.4-0.3-24.8-0.8-34.1h16.9
			c0,2,4.7,9.7,14,23.2c9.9,14.4,15.7,24.2,17.1,29.3h0.9c-0.9-8.2-1.4-15.5-1.4-22c0-9.9-0.2-20.1-0.8-30.5h14.2
			c-0.5,9.1-0.8,20.5-0.8,34.1C1539.8,502.9,1540.1,515.3,1540.6,526.5z"/>
		<path id="XMLID_51_" fill="#FFFFFF" d="M1578.9,526.5h-16.1c0.5-11.4,0.8-23.8,0.8-37.3c0-13.4-0.2-24.8-0.8-34.1h16.1
			c-0.5,9.2-0.7,20.6-0.7,34.1C1578.1,502.9,1578.4,515.4,1578.9,526.5z"/>
		<path id="XMLID_49_" fill="#FFFFFF" d="M1662.1,526.5H1648c0-1.5-5.2-9.4-15.6-23.8c-10.9-15.1-17.2-25.5-18.6-31h-0.9
			c1,8,1.4,15.3,1.4,21.7c0,9.1,0.2,20.1,0.8,33.1h-14c0.5-11.4,0.8-23.8,0.8-37.3c0-13.4-0.3-24.8-0.8-34.1h16.8
			c0,2,4.7,9.7,14.1,23.2c9.9,14.4,15.7,24.2,17.1,29.3h0.9c-0.9-8.2-1.4-15.5-1.4-22c0-9.9-0.3-20.1-0.8-30.5h14.2
			c-0.5,9.1-0.8,20.5-0.8,34.1C1661.3,502.9,1661.5,515.3,1662.1,526.5z"/>
		<path id="XMLID_47_" fill="#FFFFFF" d="M1742.8,524.6c-9.1,2.2-16.6,3.3-22.6,3.3c-13,0-23-3.5-29.7-10.3
			c-6.7-6.9-10.1-15.2-10.1-25.1c0-10.4,3.7-19.4,11-27c7.3-7.6,17.5-11.5,30.5-11.5c6.2,0,11.5,0.5,16.2,1.6l-1.9,13
			c-6-1.5-11.3-2.3-16-2.3c-8.1,0-14,2.4-18,7.1c-3.9,4.8-5.9,10.5-5.9,17.4c0,7,2.2,13.1,6.6,18.3c4.4,5.2,10.5,7.8,18.2,7.8
			c2.2,0,4.7-0.3,7.5-0.7c-0.6-4.1-0.8-8.1-0.8-12c0-4-0.4-8.4-1.2-13.3h16.1c-0.3,5.6-0.5,11.3-0.5,17
			C1742.3,512,1742.5,517.6,1742.8,524.6z"/>
		<path id="XMLID_45_" fill="#FFFFFF" d="M1841.1,514.5l-0.4,12h-47.2c0.4-9.9,0.7-22.4,0.7-37.3c0-13.8-0.2-25.2-0.7-34.1h15.9
			c-0.5,8.3-0.7,19.7-0.7,34.1c0,11-0.2,19.7-0.7,26.2C1818.5,515.3,1829.5,515,1841.1,514.5z"/>
		<path id="XMLID_42_" fill="#FFFFFF" d="M1920.3,526.5h-18.2c0-2.4-1.7-9.3-5.1-20.5h-26.3c-3.5,11.1-5.3,17.9-5.3,20.5h-17.1
			c0-1.4,4.4-13.1,13.2-35.1c8.8-22,13.2-34.1,13.2-36.3h21.5c0,2.1,4,14,12,35.8C1916.3,512.6,1920.3,524.5,1920.3,526.5z
			 M1894.1,495.5c-6.5-18.9-9.7-29.1-9.7-30.6h-0.9c0,1.4-3.3,11.6-10.1,30.6H1894.1z"/>
		<path id="XMLID_38_" fill="#FFFFFF" d="M1991.9,504.9c0,14.6-12.3,21.9-37,21.9c-4.3,0-11-0.1-20-0.4c0.5-11.1,0.7-23.5,0.7-37.3
			c0-13.4-0.2-24.8-0.7-34.1h9.2c1.7,0,4.7,0,8.8-0.2c4,0,7.3-0.1,9.6-0.1c16.8,0,25.2,5.3,25.2,15.8c0,8.1-4.3,13.5-12.9,16.1v0.8
			c4.6,0.7,8.5,2.4,12,5.2C1990.2,495.4,1991.9,499.5,1991.9,504.9z M1972.5,474.8c0-6.6-4.2-9.8-12.7-9.8c-3.9,0-7.4,0.3-10.4,0.8
			c0.4,3.7,0.6,10.1,0.6,19c1.4,0.1,2.9,0.1,4.5,0.1C1966.4,484.9,1972.5,481.6,1972.5,474.8z M1976.6,505.5
			c0-7.3-6.7-10.9-19.9-10.9c-2.6,0-4.9,0.1-6.8,0.3c0,7.7,0.2,14.7,0.5,21.2c1.3,0.3,3.2,0.4,5.8,0.4c7,0,12.1-0.9,15.4-2.4
			C1975,512.4,1976.6,509.6,1976.6,505.5z"/>
	</g>
</g>
<line id="XMLID_85_" fill="none" x1="2724" y1="-7907" x2="2724" y2="8476"/>
</svg>
